GBI6_ExamenFinalBioinformatica
…
[1 PUNTO] 1.4 Genere la data df_long utilizandola
funcin long_df.

La tabla resultante tendr tres columnas:
dataset, gen, expresion_level.

# Genere la data df_long con la funcion creada y seleccionar las columnas de interes
df_long <- long_df(df)
Datos <- df_long %>% group_by(gen)
Datos

## # A tibble: 10,241 x 3
## # Groups:   gen [7]
##    dataset gen   expresion_level
##    <fct>   <fct>           <dbl>
##  1 BRCA    GATA3           2.87 
##  2 BRCA    GATA3           2.17 
##  3 BRCA    GATA3           1.32 
##  4 BRCA    GATA3           1.84 
##  5 BRCA    GATA3          -6.03 
##  6 BRCA    GATA3           1.80 
##  7 BRCA    GATA3          -4.88 
##  8 BRCA    GATA3          -3.14 
##  9 BRCA    GATA3           2.03 
## 10 BRCA    GATA3          -0.293
## # ... with 10,231 more rows
…
## [[1]]
## # A tibble: 590 x 8
##    dataset  GATA3   PTEN   XBP1   ESR1    MUC1    FN1   GAPDH
##    <fct>    <dbl>  <dbl>  <dbl>  <dbl>   <dbl>  <dbl>   <dbl>
##  1 BRCA     2.87   1.36   2.98   3.08   1.65    1.73  -1.63  
##  2 BRCA     2.17   0.428  2.55   2.39   3.08    0.218 -0.951 
##  3 BRCA     1.32   1.31   3.02   0.791  2.99    2.51  -1.30  
##  4 BRCA     1.84   0.810  3.13   2.50  -1.92   -0.220 -0.821 
##  5 BRCA    -6.03   0.251 -1.45  -4.86  -1.17   -0.477  1.29  
##  6 BRCA     1.80   1.31   4.04   2.80   3.53    1.25  -0.0522
##  7 BRCA    -4.88  -0.237 -0.725 -4.49  -1.46   -1.97  -0.777 
##  8 BRCA    -3.14  -1.24  -1.19  -1.63  -0.987  -0.459  1.08  
##  9 BRCA     2.03   1.21   2.28   4.12   0.668   0.766 -2.01  
## 10 BRCA    -0.293  0.288 -1.61   0.473  0.0115 -0.260 -0.243 
## # ... with 580 more rows
## 
## [[2]]
## # A tibble: 561 x 8
##    dataset GATA3   PTEN    XBP1  ESR1  MUC1     FN1   GAPDH
##    <fct>   <dbl>  <dbl>   <dbl> <dbl> <dbl>   <dbl>   <dbl>
##  1 OV      -3.46  0.816 -0.603  3.04   2.66 -2.05   -1.68  
##  2 OV      -3.69  0.864  0.929  3.11   2.14 -2.25   -1.54  
##  3 OV      -3.81  0.882 -0.0015 2.60   2.73 -2.02   -1.79  
##  4 OV      -4.35 -1.90  -1.01   2.30   1.92  0.0710 -0.817 
##  5 OV      -4.53  0.786  0.161  1.85   1.86 -0.307  -1.25  
##  6 OV      -3.88 -0.537 -0.902  1.55   2.89 -2.70   -1.94  
##  7 OV      -3.45  0.599 -1.06   2.59   2.75 -2.54   -1.53  
##  8 OV      -4.25  0.827 -1.52   1.65   3.22  0.987  -2.06  
##  9 OV      -3.15  0.653 -0.978  0.666  2.64  1.13   -1.04  
## 10 OV      -4.25  0.548 -1.08   2.51   3.20 -1.57    0.0429
## # ... with 551 more rows
## 
## [[3]]
## # A tibble: 154 x 8
##    dataset  GATA3    PTEN    XBP1   ESR1     MUC1    FN1  GAPDH
##    <fct>    <dbl>   <dbl>   <dbl>  <dbl>    <dbl>  <dbl>  <dbl>
##  1 LUSC    -3.66  -0.252   0.876  -0.806  0.849   -0.822 -0.376
##  2 LUSC    -4.77   0.0888  0.528  -3.01   1.17     0.464 -0.580
##  3 LUSC    -4.48   0.568  -0.0235 -4.14   0.661   -1.36  -0.776
##  4 LUSC    -0.552  1.06   -0.715  -3.04   0.0321   1.29  -0.603
##  5 LUSC    -2.25   0.0854 -0.609  -2.99  -1.04    -1.23  -0.909
##  6 LUSC    -4.28   0.260  -0.379  -3.71  -0.0649  -1.28  -1.45 
##  7 LUSC    -4.53   0.278  -0.470  -2.82  -0.693   -1.80  -0.856
##  8 LUSC    -2.23  -0.144  -0.995  -2.83   2.04    -1.63  -1.43 
##  9 LUSC    -4.39  -1.08    0.170  -4.23  -0.00538 -1.14  -0.324
## 10 LUSC    -4.18   0.723   0.0207 -3.12  -1.48    -3.26  -1.38 
## # ... with 144 more rows
## 
## [[4]]
## # A tibble: 88 x 8
##    dataset GATA3   PTEN   XBP1  ESR1   MUC1     FN1    GAPDH
##    <fct>   <dbl>  <dbl>  <dbl> <dbl>  <dbl>   <dbl>    <dbl>
##  1 KIPAN   -4.90  2.09   0.367 -3.83 -1.19  -2.02   -0.291  
##  2 KIPAN   -4.25  1.04  -0.129 -2.21 -0.840 -1.45   -0.615  
##  3 KIPAN   -4.44  0.313 -0.817 -2.30  0.906 -0.893  -0.496  
##  4 KIPAN   -4.36  0.651 -0.285 -2.47 -0.132 -1.69    0.00317
##  5 KIPAN   -5.29  1.12  -0.737 -2.68 -1.83  -1.75   -1.21   
##  6 KIPAN   -5.52  0.750 -1.16  -2.14  1.43  -0.871   0.119  
##  7 KIPAN   -4.37  0.739 -0.496 -2.24 -1.34  -1.31   -0.968  
##  8 KIPAN   -3.59 -0.137 -0.866 -2.78  1.49   0.0809  0.379  
##  9 KIPAN   -5.13  0.923 -0.547 -2.51  0.895 -2.36   -0.717  
## 10 KIPAN   -4.89  1.16  -1.11  -2.12 -0.509 -1.48   -0.402  
## # ... with 78 more rows
## 
## [[5]]
…
##  5 KIRP    -4.19  -0.257 -2.89  -2.72  0.487  -3.04  -1.62 
##  6 KIRP    -3.57   0.579 -1.55  -2.11  0.608  -2.29  -0.814
##  7 KIRP    -3.75   1.23  -2.89  -2.57  0.249  -2.74  -2.36 
##  8 KIRP    -3.76   0.978 -2.12  -1.77 -1.49   -2.30  -1.76 
##  9 KIRP    -4.25   1.02  -2.15  -1.23 -0.573  -2.60  -1.27 
## 10 KIRP    -0.464  0.667 -1.63  -3.12 -1.46   -1.49  -1.51 
## 11 KIRP    -4.30   0.699 -1.84  -2.08  2.00   -2.84  -0.359
## 12 KIRP    -3.92   0.577 -2.72  -1.98  0.390  -2.61  -0.694
## 13 KIRP    -2.27   0.266 -1.63  -2.08  0.918  -1.47  -0.296
## 14 KIRP    -4.21   1.21  -2.11  -2.10 -0.0989 -3.08  -2.18 
## 15 KIRP    -4.37   1.33  -2.49  -1.34 -0.375  -2.88  -2.78 
## 16 KIRP    -3.76   0.786 -3.32  -2.14 -0.568  -2.03  -0.583
## 
## [[6]]
## # A tibble: 54 x 8
##    dataset GATA3    PTEN    XBP1   ESR1   MUC1    FN1     GAPDH
##    <fct>   <dbl>   <dbl>   <dbl>  <dbl>  <dbl>  <dbl>     <dbl>
##  1 UCEC    -4.91  0.731   0.131  -3.12   2.06  -1.39  -0.215   
##  2 UCEC    -5.54  0.593  -2.52   -0.152  1.49  -1.70  -0.779   
##  3 UCEC    -3.30  0.369   0.630  -2.42   2.69  -0.950 -0.502   
##  4 UCEC    -4.73 -0.740   0.151   2.59   4.03  -1.17  -0.523   
##  5 UCEC    -4.72 -1.35    1.25    2.88   1.28  -3.28  -0.000917
##  6 UCEC    -4.25  0.382  -1.16    2.97   0.607 -2.30  -0.392   
##  7 UCEC    -4.04 -0.668  -0.711  -1.48  -0.426 -1.94   0.0188  
##  8 UCEC    -4.83 -0.355  -0.796   3.34   1.64  -2.54  -0.748   
##  9 UCEC    -4.11 -0.0284  0.0528  3.47   2.46  -3.07  -0.368   
## 10 UCEC    -5.05  1.61    1.22    4.39   2.74  -3.10  -0.952   
## # ... with 44 more rows
## 
## [[7]]
## # A tibble: 54 x 8
##    dataset GATA3    PTEN    XBP1   ESR1   MUC1    FN1     GAPDH
##    <fct>   <dbl>   <dbl>   <dbl>  <dbl>  <dbl>  <dbl>     <dbl>
##  1 UCEC    -4.91  0.731   0.131  -3.12   2.06  -1.39  -0.215   
##  2 UCEC    -5.54  0.593  -2.52   -0.152  1.49  -1.70  -0.779   
##  3 UCEC    -3.30  0.369   0.630  -2.42   2.69  -0.950 -0.502   
##  4 UCEC    -4.73 -0.740   0.151   2.59   4.03  -1.17  -0.523   
##  5 UCEC    -4.72 -1.35    1.25    2.88   1.28  -3.28  -0.000917
##  6 UCEC    -4.25  0.382  -1.16    2.97   0.607 -2.30  -0.392   
##  7 UCEC    -4.04 -0.668  -0.711  -1.48  -0.426 -1.94   0.0188  
##  8 UCEC    -4.83 -0.355  -0.796   3.34   1.64  -2.54  -0.748   
##  9 UCEC    -4.11 -0.0284  0.0528  3.47   2.46  -3.07  -0.368   
## 10 UCEC    -5.05  1.61    1.22    4.39   2.74  -3.10  -0.952   
## # ... with 44 more rows
…
